OneBitALU/simulation/qsim/OneBitALU.msim.vcd
$comment
	File created using the following command:
		vcd file OneBitALU.msim.vcd -direction
$end
$date
	Tue Dec 13 16:13:54 2016
$end
$version
	ModelSim Version 10.5b
$end
$timescale
	1ps
$end

$scope module onebitalu_vhd_vec_tst $end
$var wire 1 ! a $end
$var wire 1 " b $end
$var wire 1 # cout $end
$var wire 1 $ ct0 $end
$var wire 1 % ct1 $end
$var wire 1 & ct2 $end
$var wire 1 ' fout $end

$scope module i1 $end
$var wire 1 ( gnd $end
$var wire 1 ) vcc $end
$var wire 1 * unknown $end
$var wire 1 + devoe $end
$var wire 1 , devclrn $end
$var wire 1 - devpor $end
$var wire 1 . ww_devoe $end
$var wire 1 / ww_devclrn $end
$var wire 1 0 ww_devpor $end
$var wire 1 1 ww_a $end
$var wire 1 2 ww_b $end
$var wire 1 3 ww_fout $end
$var wire 1 4 ww_ct0 $end
$var wire 1 5 ww_ct1 $end
$var wire 1 6 ww_ct2 $end
$var wire 1 7 ww_cout $end
$var wire 1 8 \fout~output_o\ $end
$var wire 1 9 \cout~output_o\ $end
$var wire 1 : \a~input_o\ $end
$var wire 1 ; \b~input_o\ $end
$var wire 1 < \ct0~input_o\ $end
$var wire 1 = \ct1~input_o\ $end
$var wire 1 > \ct2~input_o\ $end
$var wire 1 ? \fout~0_combout\ $end
$var wire 1 @ \cout~0_combout\ $end
$var wire 1 A \ALT_INV_ct2~input_o\ $end
$var wire 1 B \ALT_INV_ct1~input_o\ $end
$var wire 1 C \ALT_INV_ct0~input_o\ $end
$var wire 1 D \ALT_INV_b~input_o\ $end
$var wire 1 E \ALT_INV_a~input_o\ $end
$upscope $end
$upscope $end
$enddefinitions $end
#0
$dumpvars
0!
0"
0#
0$
0%
0&
0'
0(
1)
x*
1+
1,
1-
1.
1/
10
01
02
03
04
05
06
07
08
09
0:
0;
0<
0=
0>
0?
0@
1A
1B
1C
1D
1E
$end
#10000
1!
11
1:
0E
1?
18
13
1'
#20000
0!
1"
01
12
1;
0:
1E
0D
#30000
1!
11
1:
0E
0?
1@
19
08
17
03
1#
0'
#40000
0!
0"
1$
01
02
14
1<
0;
0:
1E
1D
0C
0@
09
07
0#
#50000
1!
11
1:
0E
#60000
0!
1"
01
12
1;
0:
1E
0D
#70000
1!
11
1:
0E
1?
1@
19
18
17
13
1#
1'
#80000
0!
0"
0$
1%
01
02
04
15
1=
0<
0;
0:
1E
1D
1C
0B
0?
0@
09
08
07
03
0#
0'
#90000
1!
11
1:
0E
1?
18
13
1'
#100000
0!
1"
01
12
1;
0:
1E
0D
#110000
1!
11
1:
0E
1@
19
17
1#
#120000
0!
0"
1$
01
02
14
1<
0;
0:
1E
1D
0C
0@
09
07
0#
#130000
1!
11
1:
0E
#140000
0!
1"
01
12
1;
0:
1E
0D
0?
08
03
0'
#150000
1!
11
1:
0E
1@
19
17
1#
#160000
0!
0"
0$
0%
1&
01
02
04
05
16
1>
0=
0<
0;
0:
1E
1D
1C
1B
0A
#170000
1!
11
1:
0E
1?
18
13
1'
#180000
0!
1"
01
12
1;
0:
1E
0D
0@
09
07
0#
#190000
1!
11
1:
0E
0?
1@
19
08
17
03
1#
0'
#200000
0!
0"
1$
01
02
14
1<
0;
0:
1E
1D
0C
#210000
1!
11
1:
0E
#220000
0!
1"
01
12
1;
0:
1E
0D
0@
09
07
0#
#230000
1!
11
1:
0E
1@
19
17
1#
#240000
0!
0"
0$
1%
01
02
04
15
1=
0<
0;
0:
1E
1D
1C
0B
#250000
1!
11
1:
0E
#260000
0!
1"
01
12
1;
0:
1E
0D
0@
09
07
0#
#270000
1!
11
1:
0E
1@
19
17
1#
#280000
0!
0"
1$
01
02
14
1<
0;
0:
1E
1D
0C
#290000
1!
11
1:
0E
#300000
0!
1"
01
12
1;
0:
1E
0D
0@
09
07
0#
#310000
1!
11
1:
0E
1@
19
17
1#
